Our style #,Vendor style #,Image (top),Image (side),Image (side2),Categories,Approx Semi-mount dwt,Stone Breakdown,stone count,weight,Diamond CTTW provided,Diamond color,Diamond quality,14kt ($1300),18kt,Platinum ($1200),setting,polish,melee,shipping from casting,shipping to customer,total 14kt,total 18kt,total Platinum
97199,84709,,,,Fashion Rings,2.7,52 - .01PT Round,52,0.52,1/2 ct tw,G - H,VS,$212,306.5,$609,156,10,286,20,25,1772.5,2008.75,2765
97200,84710,,,,Fashion Rings,3.5,41 - .01PT Round,41,0.41,3/8 ct tw,G - H,VS,$271,393.5,$779,123,10,225.5,20,25,1686.25,1992.5,2956.25
97201,84711,,,,Fashion Rings,3.07,45 - .01PT Round,45,0.45,1/2 ct tw,G - H,VS,$239,346.45,$688,135,10,247.5,20,25,1691.25,1959.875,2813.75
97203,84713,,,,Fashion Rings,2.87,30 - .006PT Round,30,0.18,1/5 ct tw,G - H,VS,$224,324.45,$645,90,10,99,20,25,1170,1421.125,2222.5
97204,84714,,,,Fashion Rings,2.8,49 - .0075PT Round,49,0.3675,1/4 ct tw,G - H,VS,$228,326,$644,147,10,202.125,20,25,1580.3125,1825.3125,2620.3125
97205,84715,,,,Fashion Rings,2.38,44 - .006PT Round,44,0.264,1/4 ct tw,G - H,VS,$188,271.3,$541,132,10,145.2,20,25,1300.5,1508.75,2183
97206,84716,,,,Fashion Rings,3.2,64 - .01PT Round,64,0.64,5/8 ct tw,G - H,VS,$249,361,$715,192,10,352,20,25,2120,2400,3285
97207,84717,,,,Fashion Rings,3.03,50 - .01PT Round,50,0.5,1/2 ct tw,G - H,VS,$236,342.05,$679,150,10,275,20,25,1790,2055.125,2897.5
97208,84718,,,,Fashion Rings,4.34,42 - .01PT Round,42,0.42,3/8 ct tw,G - H,VS,$332,483.9,$957,126,10,231,20,25,1860,2239.75,3422.5
97209,84719,,,,Fashion Rings,3.25,46 - .01PT Round,46,0.46,1/2 ct tw,G - H,VS,$252,365.75,$726,138,10,253,20,25,1745,2029.375,2930
97210,84720,,,,Fashion Rings,3.25,50 - .01PT Round,50,0.5,1/2 ct tw,G - H,VS,$252,365.75,$726,150,10,275,20,25,1830,2114.375,3015
97212,84722,,,,Fashion Rings,2.75,34 - .01PT Round,34,0.34,1/3 ct tw,G - H,VS,$216,312.25,$620,102,10,187,20,25,1400,1640.625,2410
97213,84723,,,,Fashion Rings,3.43,72 - .01PT Round,72,0.72,3/4 ct tw,G - H,VS,$266,386.05,$764,216,10,396,20,25,2332.5,2632.625,3577.5
97214,84724,,,,Fashion Rings,3,54 - .01PT Round,54,0.54,1/2 ct tw,G - H,VS,$234,339,$673,162,10,297,20,25,1870,2132.5,2967.5
97215,84725,,,,Fashion Rings,3.1,50 - .01PT Round,50,0.5,1/2 ct tw,G - H,VS,$241,349.5,$694,150,10,275,20,25,1802.5,2073.75,2935
97216,84726,,,,Fashion Rings,2.1,20 - .01PT Round,20,0.2,1/5 ct tw,G - H,VS,$168,241.5,$482,60,10,110,20,25,982.5,1166.25,1767.5
PE-A,DCP0001-A,,,,Pendants,0.9,15 - .005PT Round,15,0.075,1/15 ct tw,G - H,VS,119,,,45,10,41.25,20,25,650.625,,
PE-B,DCP0001-B,,,,Pendants,0.9,19 - .005PT Round,19,0.095,1/10 ct tw,G - H,VS,119,,,57,10,52.25,20,25,708.125,,
PE-C,DCP0001-C,,,,Pendants,0.9,11 - .005PT Round,11,0.055,1/20 ct tw,G - H,VS,119,,,33,10,30.25,20,25,593.125,,
PE-D,DCP0001-D,,,,Pendants,0.9,17 - .005PT Round,17,0.085,1/10 ct tw,G - H,VS,119,,,51,10,46.75,20,25,679.375,,
PE-E,DCP0001-E,,,,Pendants,1.15,16 - .005PT Round,16,0.08,1/15 ct tw,G - H,VS,119,,,48,10,44,20,25,665,,
PE-F,DCP0001-F,,,,Pendants,0.9,12 - .005PT Round,12,0.06,1/20 ct tw,G - H,VS,119,,,36,10,33,20,25,607.5,,
PE-G,DCP0001-G,,,,Pendants,0.9,14 - .005PT Round,14,0.07,1/15 ct tw,G - H,VS,119,,,42,10,38.5,20,25,636.25,,
PE-H,DCP0001-H,,,,Pendants,1,12 - .005PT Round,12,0.06,1/20 ct tw,G - H,VS,119,,,36,10,33,20,25,607.5,,
PE-I,DCP0001-I,,,,Pendants,1,11 - .005PT Round,11,0.055,1/20 ct tw,G - H,VS,119,,,33,10,30.25,20,25,593.125,,
PE-J,DCP0001-J,,,,Pendants,0.9,8 - .005PT Round,8,0.04,1/20 ct tw,G - H,VS,119,,,24,10,22,20,25,550,,
PE-K,DCP0001-K,,,,Pendants,0.9,12 - .005PT Round,12,0.06,1/20 ct tw,G - H,VS,119,,,36,10,33,20,25,607.5,,
PE-L,DCP0001-L,,,,Pendants,0.85,8 - .005PT Round,8,0.04,1/20 ct tw,G - H,VS,119,,,24,10,22,20,25,550,,
PE-M,DCP0001-M,,,,Pendants,1.1,19 - .005PT Round,19,0.095,1/10 ct tw,G - H,VS,119,,,57,10,52.25,20,25,708.125,,
PE-N,DCP0001-N,,,,Pendants,1.1,15 - .005PT Round,15,0.075,1/15 ct tw,G - H,VS,119,,,45,10,41.25,20,25,650.625,,
PE-O,DCP0001-O,,,,Pendants,0.85,12 - .005PT Round,12,0.06,1/20 ct tw,G - H,VS,119,,,36,10,33,20,25,607.5,,
PE-P,DCP0001-P,,,,Pendants,0.85,13 - .005PT Round,13,0.065,1/15 ct tw,G - H,VS,119,,,39,10,35.75,20,25,621.875,,
PE-Q,DCP0001-Q,,,,Pendants,0.85,13 - .005PT Round,13,0.065,1/15 ct tw,G - H,VS,119,,,39,10,35.75,20,25,621.875,,
PE-R,DCP0001-R,,,,Pendants,1.05,18 - .005PT Round,18,0.09,1/10 ct tw,G - H,VS,119,,,54,10,49.5,20,25,693.75,,
PE-S,DCP0001-S,,,,Pendants,0.85,11 - .005PT Round,11,0.055,1/20 ct tw,G - H,VS,119,,,33,10,30.25,20,25,593.125,,
PE-T,DCP0001-T,,,,Pendants,0.85,9 - .005PT Round,9,0.045,1/20 ct tw,G - H,VS,119,,,27,10,24.75,20,25,564.375,,
PE-U,DCP0001-U,,,,Pendants,1,13 - .005PT Round,13,0.065,1/15 ct tw,G - H,VS,119,,,39,10,35.75,20,25,621.875,,
PE-V,DCP0001-V,,,,Pendants,0.85,12 - .005PT Round,12,0.06,1/20 ct tw,G - H,VS,119,,,36,10,33,20,25,607.5,,
PE-W,DCP0001-W,,,,Pendants,1.2,20 - .005PT Round,20,0.1,1/10 ct tw,G - H,VS,119,,,60,10,55,20,25,722.5,,
PE-X,DCP0001-X,,,,Pendants,0.95,13 - .005PT Round,13,0.065,1/15 ct tw,G - H,VS,119,,,39,10,35.75,20,25,621.875,,
PE-Y,DCP0001-Y,,,,Pendants,0.85,9 - .005PT Round,9,0.045,1/20 ct tw,G - H,VS,119,,,27,10,24.75,20,25,564.375,,
PE-Z,DCP0001-Z,,,,Pendants,1.1,15 - .005PT Round,15,0.075,1/15 ct tw,G - H,VS,119,,,45,10,41.25,20,25,650.625,,
53465,40975,,,,Hoops,1.3,27 - .01PT Round,0,0.27,1/4 ct tw,G - H,VS,$88,133.5,,0,10,148.5,20,25,1457.5,1685,
53467,40977,,,,Hoops,0.85,7 - .015PT Round,0,0.105,1/10 ct tw,G - H,VS,$58,87.75,,0,10,57.75,20,25,853.75,1002.5,
53468,40978,,,,Hoops,1.2,"16 - .0075PT Round ,16 - .01PT Round ,9 - .015PT Round",25,0.415,3/8 ct tw,G - H,VS,$82,124,,75,10,228.25,20,25,2201.25,2411.25,
53495-0.0075-30MM,41005-.0075-30MM,,,,Hoops,2.2,42 - .0075PT Round,0,0.315,1/3 ct tw,G - H,VS,$150,227,,0,10,173.25,20,25,1891.25,2276.25,
53495-0.0075-42MM,41005-.0075-42MM,,,,Hoops,3.7,63 - .0075PT Round,0,0.4725,1/2 ct tw,G - H,VS,$252,381.5,,0,10,259.875,20,25,2834.375,3481.875,
53495-0.0075-61MM,41005-.0075-61MM,,,,Hoops,4.3,100 - .0075PT Round,0,0.75,3/4 ct tw,G - H,VS,$293,443.5,,0,10,412.5,20,25,3802.5,4555,
53495-0.01-20MM,41005-.01-20MM,,,,Hoops,1.6,25 - .01PT Round,0,0.25,1/4 ct tw,G - H,VS,$109,165,,0,10,137.5,20,25,1507.5,1787.5,
53495-0.01-24MM,41005-.01-24MM,,,,Hoops,1.8,30 - .01PT Round,0,0.3,1/3 ct tw,G - H,VS,$123,186,,0,10,165,20,25,1715,2030,
53495-0.01-35MM,41005-.01-35MM,,,,Hoops,2.7,50 - .01PT Round,0,0.5,1/2 ct tw,G - H,VS,$184,278.5,,0,10,275,20,25,2570,3042.5,
53495-0.01-50MM,41005-.01-50MM,,,,Hoops,4,78 - .01PT Round,0,0.78,3/4 ct tw,G - H,VS,$273,413,,0,10,429,20,25,3785,4485,
53495-0.0125-36MM,41005-.0125-36MM,,,,Hoops,3.1,47 - .0125PT Round,0,0.5875,5/8 ct tw,G - H,VS,$211,319.5,,0,10,323.125,20,25,2945.625,3488.125,
53495-0.0125-50MM,41005-.0125-50MM,,,,Hoops,4.4,71 - .0125PT Round,0,0.8875,7/8 ct tw,G - H,VS,$300,454,,0,10,488.125,20,25,4215.625,4985.625,
53495-0.015-25MM,41005-.015-25MM,,,,Hoops,2,30 - .015PT Round,0,0.45,1/2 ct tw,G - H,VS,$136,206,,0,10,247.5,20,25,2192.5,2542.5,
53495-0.015-42MM,41005-.015-42MM,,,,Hoops,4.2,58 - .015PT Round,0,0.87,7/8 ct tw,G - H,VS,$287,434,,0,10,478.5,20,25,4102.5,4837.5,
53495-0.02-20MM,41005-.02-20MM,,,,Hoops,1.6,17 - .02PT Round,0,0.34,1/3 ct tw,G - H,VS,$109,165,,0,10,187,20,25,1755,2035,
53495-0.02-25MM,41005-.02-25MM,,,,Hoops,2,25 - .02PT Round,0,0.5,1/2 ct tw,G - H,VS,$136,206,,0,10,275,20,25,2330,2680,
53495-0.02-35MM,41005-.02-35MM,,,,Hoops,2.6,40 - .02PT Round,0,0.8,3/4 ct tw,G - H,VS,$177,268,,0,10,440,20,25,3360,3815,
53495-0.02-43MM,41005-.02-43MM,,,,Hoops,3.3,53 - .02PT Round,0,1.06,1 ct tw,G - H,VS,$225,340.5,,0,10,583,20,25,4315,4892.5,
53495-0.02-56MM,41005-.02-56MM,,,,Hoops,4.6,77 - .02PT Round,0,1.54,1 1/2 ct tw,G - H,VS,$314,475,,0,10,847,20,25,6080,6885,
53498-0.01-20MM,41008-.01-20MM,,,,Hoops,1.08,20 - .01PT Round,0,0.2,1/5 ct tw,G - H,VS,$73,110.8,,0,10,110,20,25,1190,1379,
53498-0.01-30MM,41008-.01-30MM,,,,Hoops,1.4,40 - .01PT Round,0,0.4,3/8 ct tw,G - H,VS,$95,144,,0,10,220,20,25,1850,2095,
53498-0.01-40MM,41008-.01-40MM,,,,Hoops,2.1,61 - .01PT Round,0,0.61,5/8 ct tw,G - H,VS,$166,239.5,,0,10,335.5,20,25,2782.5,3150,
53498-0.01-52MM,41008-.01-52MM,,,,Hoops,2.5,80 - .01PT Round,0,0.8,3/4 ct tw,G - H,VS,$170,257.5,,0,10,440,20,25,3325,3762.5,
53498-0.02-24MM,41008-.02-24MM,,,,Hoops,1.4,25 - .02PT Round,0,0.5,1/2 ct tw,G - H,VS,$95,144,,0,10,275,20,25,2125,2370,
53498-0.02-34MM,41008-.02-34MM,,,,Hoops,2.1,38 - .02PT Round,0,0.76,3/4 ct tw,G - H,VS,$143,216.5,,0,10,418,20,25,3080,3447.5,
53498-0.02-41MM,41008-.02-41MM,,,,Hoops,2.6,50 - .02PT Round,0,1,1 ct tw,G - H,VS,$177,268,,0,10,550,20,25,3910,4365,
53498-0.02-57MM,41008-.02-57MM,,,,Hoops,5.5,78 - .02PT Round,0,1.56,1 1/2 ct tw,G - H,VS,$375,567.5,,0,10,858,20,25,6440,7402.5,
53502-0.01-34MM,41012-.01-34MM,,,,Hoops,1.5,39 - .01PT Round,0,0.39,3/8 ct tw,G - H,VS,$119,171.5,,0,10,214.5,20,25,1942.5,2205,
53502-0.01-47MM,41012-.01-47MM,,,,Hoops,2.7,66 - .01PT Round,0,0.66,5/8 ct tw,G - H,VS,$184,278.5,,0,10,363,20,25,3010,3482.5,
53502-0.01-56MM,41012-.01-56MM,,,,Hoops,2.9,79 - .01PT Round,0,0.79,3/4 ct tw,G - H,VS,$228,329.5,,0,10,434.5,20,25,3587.5,4095,
53502-0.02-23MM,41012-.02-23MM,,,,Hoops,1.7,18 - .02PT Round,0,0.36,1/3 ct tw,G - H,VS,$116,175.5,,0,10,198,20,25,1845,2142.5,
53502-0.02-30MM,41012-.02-30MM,,,,Hoops,2.1,27 - .02PT Round,0,0.54,1/2 ct tw,G - H,VS,$143,216.5,,0,10,297,20,25,2475,2842.5,
53502-0.02-37MM,41012-.02-37MM,,,,Hoops,2.6,37 - .02PT Round,0,0.74,3/4 ct tw,G - H,VS,$177,268,,0,10,407,20,25,3195,3650,
53505-0.01-30MM,41015-.01-30MM,,,,Hoops,2.4,21 - .01PT Round,0,0.21,1/5 ct tw,G - H,VS,$164,248,,0,10,115.5,20,25,1672.5,2092.5,
53505-0.02-30MM,41015-.02-30MM,,,,Hoops,2.7,19 - .02PT Round,0,0.38,3/8 ct tw,G - H,VS,$184,278.5,,0,10,209,20,25,2240,2712.5,
53507-0.01-20MM,41017-.01-20MM,,,,Hoops,0.9,25 - .01PT Round,0,0.25,1/4 ct tw,G - H,VS,$61,92.5,,0,10,137.5,20,25,1267.5,1425,
53507-0.01-25MM,41017-.01-25MM,,,,Hoops,1.1,36 - .01PT Round,0,0.36,1/3 ct tw,G - H,VS,$75,113.5,,0,10,198,20,25,1640,1832.5,
53507-0.01-33MM,41017-.01-33MM,,,,Hoops,1.6,50 - .01PT Round,0,0.5,1/2 ct tw,G - H,VS,$109,165,,0,10,275,20,25,2195,2475,
53507-0.01-44MM,41017-.01-44MM,,,,Hoops,2.2,75 - .01PT Round,0,0.75,3/4 ct tw,G - H,VS,$150,227,,0,10,412.5,20,25,3087.5,3472.5,
53507-0.015-25MM,41017-.015-25MM,,,,Hoops,1.5,33 - .015PT Round,0,0.495,1/2 ct tw,G - H,VS,$102,154.5,,0,10,272.25,20,25,2146.25,2408.75,
53507-0.015-34MM,41017-.015-34MM,,,,Hoops,1.8,50 - .015PT Round,0,0.75,3/4 ct tw,G - H,VS,$123,186,,0,10,412.5,20,25,2952.5,3267.5,
53507-0.015-43MM,41017-.015-43MM,,,,Hoops,2.2,67 - .015PT Round,0,1.005,1 ct tw,G - H,VS,$150,227,,0,10,552.75,20,25,3788.75,4173.75,
53507-0.02-23MM,41017-.02-23MM,,,,Hoops,1.3,25 - .02PT Round,0,0.5,1/2 ct tw,G - H,VS,$88,133.5,,0,10,275,20,25,2090,2317.5,
53507-0.02-30MM,41017-.02-30MM,,,,Hoops,2.7,37 - .02PT Round,0,0.74,3/4 ct tw,G - H,VS,$184,278.5,,0,10,407,20,25,3230,3702.5,
53507-0.02-38MM,41017-.02-38MM,,,,Hoops,2.9,50 - .02PT Round,0,1,1 ct tw,G - H,VS,$198,299.5,,0,10,550,20,25,4015,4522.5,
53508-0.02-23MM,41018-.02-23MM,,,,Hoops,1.6,25 - .02PT Round,0,0.5,1/2 ct tw,G - H,VS,$109,165,,0,10,275,20,25,2195,2475,
53508-0.02-39MM,41018-.02-39MM,,,,Hoops,2.4,50 - .02PT Round,0,1,1 ct tw,G - H,VS,$164,248,,0,10,550,20,25,3845,4265,
53508-0.02-52MM,41018-.02-52MM,,,,Hoops,3.8,75 - .02PT Round,0,1.5,1 1/2 ct tw,G - H,VS,$259,392,,0,10,825,20,25,5695,6360,
53512-0.005-16MM,41022-.005-16MM,,,,Hoops,1.7,100 - .005PT Round,0,0.5,1/2 ct tw,G - H,VS,$116,175.5,,0,10,275,20,25,2230,2527.5,
53512-0.005-22MM,41022-.005-22MM,,,,Hoops,1.7,100 - .005PT Round,0,0.5,1/2 ct tw,G - H,VS,$116,175.5,,0,10,275,20,25,2230,2527.5,
53512-0.005-35MM,41022-.005-35MM,,,,Hoops,2.6,200 - .005PT Round,0,1,1 ct tw,G - H,VS,$177,268,,0,10,550,20,25,3910,4365,
53512-0.005-56MM,41022-.005-56MM,,,,Hoops,5.3,350 - .005PT Round,0,1.75,1 3/4 ct tw,G - H,VS,$362,547.5,,0,10,962.5,20,25,6897.5,7825,
53512-0.0125-37MM,41022-.0125-37MM,,,,Hoops,3.8,152 - .0125PT Round,0,1.9,1 7/8 ct tw,G - H,VS,$259,392,,0,10,1045,20,25,6795,7460,
53512-0.015-25MM,41022-.015-25MM,,,,Hoops,3.3,74 - .015PT Round,0,1.11,1 ct tw,G - H,VS,$225,340.5,,0,10,610.5,20,25,4452.5,5030,
53512-0.015-26MM,41022-.015-26MM,,,,Hoops,2.8,89 - .015PT Round,0,1.335,1 1/3 ct tw,G - H,VS,$191,289,,0,10,734.25,20,25,4901.25,5391.25,
53512-0.015-36MM,41022-.015-36MM,,,,Hoops,4.7,125 - .015PT Round,0,1.875,1 7/8 ct tw,G - H,VS,$321,485.5,,0,10,1031.25,20,25,7036.25,7858.75,
53512-0.015-50MM,41022-.015-50MM,,,,Hoops,4.9,230 - .015PT Round,0,3.45,3 1/2 ct tw,G - H,VS,$334,505.5,,0,10,1897.5,20,25,11432.5,12290,
53513-0.005-38MM,41023-.005-38MM,,,,Hoops,2.6,200 - .005PT Round,0,1,1 ct tw,G - H,VS,$177,268,,0,10,550,20,25,3910,4365,
53513-0.015-31MM,41023-.015-31MM,,,,Hoops,3.6,104 - .015PT Round,0,1.56,1 1/2 ct tw,G - H,VS,$246,372,,0,10,858,20,25,5795,6425,
53513-0.015-40MM,41023-.015-40MM,,,,Hoops,4.6,146 - .015PT Round,0,2.19,2 1/5 ct tw,G - H,VS,$314,475,,0,10,1204.5,20,25,7867.5,8672.5,
53513-0.015-51MM,41023-.015-51MM,,,,Hoops,5.5,200 - .015PT Round,0,3,3 ct tw,G - H,VS,$375,567.5,,0,10,1650,20,25,10400,11362.5,
53514-0.02-20MM,41024-.02-20MM,,,,Hoops,1.3,19 - .02PT Round,0,0.38,3/8 ct tw,G - H,VS,$88,133.5,,0,10,209,20,25,1760,1987.5,
53514-0.02-26MM,41024-.02-26MM,,,,Hoops,1.9,28 - .02PT Round,0,0.56,1/2 ct tw,G - H,VS,$129,195.5,,0,10,308,20,25,2460,2792.5,
53514-0.02-35MM,41024-.02-35MM,,,,Hoops,2.7,48 - .02PT Round,0,0.96,1 ct tw,G - H,VS,$184,278.5,,0,10,528,20,25,3835,4307.5,
53515-0.02-30MM,41025-.02-30MM,,,,Hoops,1.8,30 - .02PT Round,0,0.6,5/8 ct tw,G - H,VS,$123,186,,0,10,330,20,25,2540,2855,
53515-0.02-38MM,41025-.02-38MM,,,,Hoops,2.3,44 - .02PT Round,0,0.88,7/8 ct tw,G - H,VS,$157,237.5,,0,10,484,20,25,3480,3882.5,
